
*** Running vivado
    with args -log mb_design_xbar_1.vds -m64 -product Vivado -mode batch -messageDb vivado.pb -notrace -source mb_design_xbar_1.tcl


****** Vivado v2016.4 (64-bit)
  **** SW Build 1756540 on Mon Jan 23 19:11:23 MST 2017
  **** IP Build 1755317 on Mon Jan 23 20:30:07 MST 2017
    ** Copyright 1986-2016 Xilinx, Inc. All Rights Reserved.

source mb_design_xbar_1.tcl -notrace
Starting RTL Elaboration : Time (s): cpu = 00:00:22 ; elapsed = 00:00:26 . Memory (MB): peak = 310.387 ; gain = 100.527
INFO: [Synth 8-638] synthesizing module 'mb_design_xbar_1' [d:/Studia magisterskie/SDUP_Projekt/huffman.srcs/sources_1/bd/mb_design/ip/mb_design_xbar_1/synth/mb_design_xbar_1.v:59]
INFO: [Synth 8-638] synthesizing module 'axi_crossbar_v2_1_12_axi_crossbar' [d:/Studia magisterskie/SDUP_Projekt/huffman.srcs/sources_1/bd/mb_design/ipshared/896d/hdl/axi_crossbar_v2_1_vl_rfs.v:4882]
INFO: [Synth 8-638] synthesizing module 'axi_crossbar_v2_1_12_crossbar_sasd' [d:/Studia magisterskie/SDUP_Projekt/huffman.srcs/sources_1/bd/mb_design/ipshared/896d/hdl/axi_crossbar_v2_1_vl_rfs.v:1240]
INFO: [Synth 8-638] synthesizing module 'axi_crossbar_v2_1_12_addr_decoder' [d:/Studia magisterskie/SDUP_Projekt/huffman.srcs/sources_1/bd/mb_design/ipshared/896d/hdl/axi_crossbar_v2_1_vl_rfs.v:794]
INFO: [Synth 8-638] synthesizing module 'generic_baseblocks_v2_1_0_comparator_static' [d:/Studia magisterskie/SDUP_Projekt/huffman.srcs/sources_1/bd/mb_design/ipshared/7ee0/hdl/generic_baseblocks_v2_1_vl_rfs.v:2133]
INFO: [Synth 8-638] synthesizing module 'generic_baseblocks_v2_1_0_carry_and' [d:/Studia magisterskie/SDUP_Projekt/huffman.srcs/sources_1/bd/mb_design/ipshared/7ee0/hdl/generic_baseblocks_v2_1_vl_rfs.v:62]
INFO: [Synth 8-256] done synthesizing module 'generic_baseblocks_v2_1_0_carry_and' (1#1) [d:/Studia magisterskie/SDUP_Projekt/huffman.srcs/sources_1/bd/mb_design/ipshared/7ee0/hdl/generic_baseblocks_v2_1_vl_rfs.v:62]
INFO: [Synth 8-256] done synthesizing module 'generic_baseblocks_v2_1_0_comparator_static' (2#1) [d:/Studia magisterskie/SDUP_Projekt/huffman.srcs/sources_1/bd/mb_design/ipshared/7ee0/hdl/generic_baseblocks_v2_1_vl_rfs.v:2133]
INFO: [Synth 8-638] synthesizing module 'generic_baseblocks_v2_1_0_comparator_static__parameterized0' [d:/Studia magisterskie/SDUP_Projekt/huffman.srcs/sources_1/bd/mb_design/ipshared/7ee0/hdl/generic_baseblocks_v2_1_vl_rfs.v:2133]
INFO: [Synth 8-256] done synthesizing module 'generic_baseblocks_v2_1_0_comparator_static__parameterized0' (2#1) [d:/Studia magisterskie/SDUP_Projekt/huffman.srcs/sources_1/bd/mb_design/ipshared/7ee0/hdl/generic_baseblocks_v2_1_vl_rfs.v:2133]
INFO: [Synth 8-638] synthesizing module 'generic_baseblocks_v2_1_0_comparator_static__parameterized1' [d:/Studia magisterskie/SDUP_Projekt/huffman.srcs/sources_1/bd/mb_design/ipshared/7ee0/hdl/generic_baseblocks_v2_1_vl_rfs.v:2133]
INFO: [Synth 8-256] done synthesizing module 'generic_baseblocks_v2_1_0_comparator_static__parameterized1' (2#1) [d:/Studia magisterskie/SDUP_Projekt/huffman.srcs/sources_1/bd/mb_design/ipshared/7ee0/hdl/generic_baseblocks_v2_1_vl_rfs.v:2133]
INFO: [Synth 8-638] synthesizing module 'generic_baseblocks_v2_1_0_comparator_static__parameterized2' [d:/Studia magisterskie/SDUP_Projekt/huffman.srcs/sources_1/bd/mb_design/ipshared/7ee0/hdl/generic_baseblocks_v2_1_vl_rfs.v:2133]
INFO: [Synth 8-256] done synthesizing module 'generic_baseblocks_v2_1_0_comparator_static__parameterized2' (2#1) [d:/Studia magisterskie/SDUP_Projekt/huffman.srcs/sources_1/bd/mb_design/ipshared/7ee0/hdl/generic_baseblocks_v2_1_vl_rfs.v:2133]
INFO: [Synth 8-638] synthesizing module 'generic_baseblocks_v2_1_0_comparator_static__parameterized3' [d:/Studia magisterskie/SDUP_Projekt/huffman.srcs/sources_1/bd/mb_design/ipshared/7ee0/hdl/generic_baseblocks_v2_1_vl_rfs.v:2133]
INFO: [Synth 8-256] done synthesizing module 'generic_baseblocks_v2_1_0_comparator_static__parameterized3' (2#1) [d:/Studia magisterskie/SDUP_Projekt/huffman.srcs/sources_1/bd/mb_design/ipshared/7ee0/hdl/generic_baseblocks_v2_1_vl_rfs.v:2133]
INFO: [Synth 8-638] synthesizing module 'generic_baseblocks_v2_1_0_comparator_static__parameterized4' [d:/Studia magisterskie/SDUP_Projekt/huffman.srcs/sources_1/bd/mb_design/ipshared/7ee0/hdl/generic_baseblocks_v2_1_vl_rfs.v:2133]
INFO: [Synth 8-256] done synthesizing module 'generic_baseblocks_v2_1_0_comparator_static__parameterized4' (2#1) [d:/Studia magisterskie/SDUP_Projekt/huffman.srcs/sources_1/bd/mb_design/ipshared/7ee0/hdl/generic_baseblocks_v2_1_vl_rfs.v:2133]
INFO: [Synth 8-638] synthesizing module 'generic_baseblocks_v2_1_0_comparator_static__parameterized5' [d:/Studia magisterskie/SDUP_Projekt/huffman.srcs/sources_1/bd/mb_design/ipshared/7ee0/hdl/generic_baseblocks_v2_1_vl_rfs.v:2133]
INFO: [Synth 8-256] done synthesizing module 'generic_baseblocks_v2_1_0_comparator_static__parameterized5' (2#1) [d:/Studia magisterskie/SDUP_Projekt/huffman.srcs/sources_1/bd/mb_design/ipshared/7ee0/hdl/generic_baseblocks_v2_1_vl_rfs.v:2133]
INFO: [Synth 8-256] done synthesizing module 'axi_crossbar_v2_1_12_addr_decoder' (3#1) [d:/Studia magisterskie/SDUP_Projekt/huffman.srcs/sources_1/bd/mb_design/ipshared/896d/hdl/axi_crossbar_v2_1_vl_rfs.v:794]
INFO: [Synth 8-638] synthesizing module 'axi_crossbar_v2_1_12_decerr_slave' [d:/Studia magisterskie/SDUP_Projekt/huffman.srcs/sources_1/bd/mb_design/ipshared/896d/hdl/axi_crossbar_v2_1_vl_rfs.v:3500]
INFO: [Synth 8-256] done synthesizing module 'axi_crossbar_v2_1_12_decerr_slave' (4#1) [d:/Studia magisterskie/SDUP_Projekt/huffman.srcs/sources_1/bd/mb_design/ipshared/896d/hdl/axi_crossbar_v2_1_vl_rfs.v:3500]
INFO: [Synth 8-638] synthesizing module 'axi_crossbar_v2_1_12_addr_arbiter_sasd' [d:/Studia magisterskie/SDUP_Projekt/huffman.srcs/sources_1/bd/mb_design/ipshared/896d/hdl/axi_crossbar_v2_1_vl_rfs.v:65]
INFO: [Synth 8-256] done synthesizing module 'axi_crossbar_v2_1_12_addr_arbiter_sasd' (5#1) [d:/Studia magisterskie/SDUP_Projekt/huffman.srcs/sources_1/bd/mb_design/ipshared/896d/hdl/axi_crossbar_v2_1_vl_rfs.v:65]
INFO: [Synth 8-638] synthesizing module 'axi_crossbar_v2_1_12_splitter' [d:/Studia magisterskie/SDUP_Projekt/huffman.srcs/sources_1/bd/mb_design/ipshared/896d/hdl/axi_crossbar_v2_1_vl_rfs.v:4459]
INFO: [Synth 8-256] done synthesizing module 'axi_crossbar_v2_1_12_splitter' (6#1) [d:/Studia magisterskie/SDUP_Projekt/huffman.srcs/sources_1/bd/mb_design/ipshared/896d/hdl/axi_crossbar_v2_1_vl_rfs.v:4459]
INFO: [Synth 8-638] synthesizing module 'axi_crossbar_v2_1_12_splitter__parameterized0' [d:/Studia magisterskie/SDUP_Projekt/huffman.srcs/sources_1/bd/mb_design/ipshared/896d/hdl/axi_crossbar_v2_1_vl_rfs.v:4459]
INFO: [Synth 8-256] done synthesizing module 'axi_crossbar_v2_1_12_splitter__parameterized0' (6#1) [d:/Studia magisterskie/SDUP_Projekt/huffman.srcs/sources_1/bd/mb_design/ipshared/896d/hdl/axi_crossbar_v2_1_vl_rfs.v:4459]
INFO: [Synth 8-638] synthesizing module 'generic_baseblocks_v2_1_0_mux_enc' [d:/Studia magisterskie/SDUP_Projekt/huffman.srcs/sources_1/bd/mb_design/ipshared/7ee0/hdl/generic_baseblocks_v2_1_vl_rfs.v:2452]
INFO: [Synth 8-256] done synthesizing module 'generic_baseblocks_v2_1_0_mux_enc' (7#1) [d:/Studia magisterskie/SDUP_Projekt/huffman.srcs/sources_1/bd/mb_design/ipshared/7ee0/hdl/generic_baseblocks_v2_1_vl_rfs.v:2452]
INFO: [Synth 8-638] synthesizing module 'generic_baseblocks_v2_1_0_mux_enc__parameterized0' [d:/Studia magisterskie/SDUP_Projekt/huffman.srcs/sources_1/bd/mb_design/ipshared/7ee0/hdl/generic_baseblocks_v2_1_vl_rfs.v:2452]
INFO: [Synth 8-256] done synthesizing module 'generic_baseblocks_v2_1_0_mux_enc__parameterized0' (7#1) [d:/Studia magisterskie/SDUP_Projekt/huffman.srcs/sources_1/bd/mb_design/ipshared/7ee0/hdl/generic_baseblocks_v2_1_vl_rfs.v:2452]
INFO: [Synth 8-638] synthesizing module 'generic_baseblocks_v2_1_0_mux_enc__parameterized1' [d:/Studia magisterskie/SDUP_Projekt/huffman.srcs/sources_1/bd/mb_design/ipshared/7ee0/hdl/generic_baseblocks_v2_1_vl_rfs.v:2452]
INFO: [Synth 8-256] done synthesizing module 'generic_baseblocks_v2_1_0_mux_enc__parameterized1' (7#1) [d:/Studia magisterskie/SDUP_Projekt/huffman.srcs/sources_1/bd/mb_design/ipshared/7ee0/hdl/generic_baseblocks_v2_1_vl_rfs.v:2452]
INFO: [Synth 8-638] synthesizing module 'generic_baseblocks_v2_1_0_mux_enc__parameterized2' [d:/Studia magisterskie/SDUP_Projekt/huffman.srcs/sources_1/bd/mb_design/ipshared/7ee0/hdl/generic_baseblocks_v2_1_vl_rfs.v:2452]
INFO: [Synth 8-256] done synthesizing module 'generic_baseblocks_v2_1_0_mux_enc__parameterized2' (7#1) [d:/Studia magisterskie/SDUP_Projekt/huffman.srcs/sources_1/bd/mb_design/ipshared/7ee0/hdl/generic_baseblocks_v2_1_vl_rfs.v:2452]
INFO: [Synth 8-638] synthesizing module 'axi_register_slice_v2_1_11_axic_register_slice' [d:/Studia magisterskie/SDUP_Projekt/huffman.srcs/sources_1/bd/mb_design/ipshared/0b6b/hdl/axi_register_slice_v2_1_vl_rfs.v:85]
INFO: [Synth 8-256] done synthesizing module 'axi_register_slice_v2_1_11_axic_register_slice' (8#1) [d:/Studia magisterskie/SDUP_Projekt/huffman.srcs/sources_1/bd/mb_design/ipshared/0b6b/hdl/axi_register_slice_v2_1_vl_rfs.v:85]
INFO: [Synth 8-638] synthesizing module 'generic_baseblocks_v2_1_0_mux_enc__parameterized3' [d:/Studia magisterskie/SDUP_Projekt/huffman.srcs/sources_1/bd/mb_design/ipshared/7ee0/hdl/generic_baseblocks_v2_1_vl_rfs.v:2452]
INFO: [Synth 8-256] done synthesizing module 'generic_baseblocks_v2_1_0_mux_enc__parameterized3' (8#1) [d:/Studia magisterskie/SDUP_Projekt/huffman.srcs/sources_1/bd/mb_design/ipshared/7ee0/hdl/generic_baseblocks_v2_1_vl_rfs.v:2452]
INFO: [Synth 8-256] done synthesizing module 'axi_crossbar_v2_1_12_crossbar_sasd' (9#1) [d:/Studia magisterskie/SDUP_Projekt/huffman.srcs/sources_1/bd/mb_design/ipshared/896d/hdl/axi_crossbar_v2_1_vl_rfs.v:1240]
INFO: [Synth 8-256] done synthesizing module 'axi_crossbar_v2_1_12_axi_crossbar' (10#1) [d:/Studia magisterskie/SDUP_Projekt/huffman.srcs/sources_1/bd/mb_design/ipshared/896d/hdl/axi_crossbar_v2_1_vl_rfs.v:4882]
INFO: [Synth 8-256] done synthesizing module 'mb_design_xbar_1' (11#1) [d:/Studia magisterskie/SDUP_Projekt/huffman.srcs/sources_1/bd/mb_design/ip/mb_design_xbar_1/synth/mb_design_xbar_1.v:59]
Finished RTL Elaboration : Time (s): cpu = 00:00:35 ; elapsed = 00:00:40 . Memory (MB): peak = 426.770 ; gain = 216.910
Finished RTL Optimization Phase 1 : Time (s): cpu = 00:00:35 ; elapsed = 00:00:40 . Memory (MB): peak = 426.770 ; gain = 216.910
INFO: [Device 21-403] Loading part xc7z020clg484-1
Constraint Validation Runtime : Time (s): cpu = 00:00:00 ; elapsed = 00:00:00.137 . Memory (MB): peak = 671.801 ; gain = 0.000
Finished Constraint Validation : Time (s): cpu = 00:00:57 ; elapsed = 00:01:04 . Memory (MB): peak = 671.801 ; gain = 461.941
Finished Loading Part and Timing Information : Time (s): cpu = 00:00:57 ; elapsed = 00:01:04 . Memory (MB): peak = 671.801 ; gain = 461.941
Finished applying 'set_property' XDC Constraints : Time (s): cpu = 00:00:57 ; elapsed = 00:01:04 . Memory (MB): peak = 671.801 ; gain = 461.941
Finished RTL Optimization Phase 2 : Time (s): cpu = 00:00:58 ; elapsed = 00:01:05 . Memory (MB): peak = 671.801 ; gain = 461.941
Finished Cross Boundary and Area Optimization : Time (s): cpu = 00:01:01 ; elapsed = 00:01:08 . Memory (MB): peak = 671.801 ; gain = 461.941
Finished Applying XDC Timing Constraints : Time (s): cpu = 00:01:32 ; elapsed = 00:01:44 . Memory (MB): peak = 671.801 ; gain = 461.941
Finished Timing Optimization : Time (s): cpu = 00:01:36 ; elapsed = 00:01:48 . Memory (MB): peak = 671.801 ; gain = 461.941
Finished Technology Mapping : Time (s): cpu = 00:01:36 ; elapsed = 00:01:48 . Memory (MB): peak = 671.801 ; gain = 461.941
Finished IO Insertion : Time (s): cpu = 00:01:38 ; elapsed = 00:01:50 . Memory (MB): peak = 671.801 ; gain = 461.941
Finished Renaming Generated Instances : Time (s): cpu = 00:01:38 ; elapsed = 00:01:50 . Memory (MB): peak = 671.801 ; gain = 461.941
Finished Rebuilding User Hierarchy : Time (s): cpu = 00:01:38 ; elapsed = 00:01:50 . Memory (MB): peak = 671.801 ; gain = 461.941
Finished Renaming Generated Ports : Time (s): cpu = 00:01:38 ; elapsed = 00:01:50 . Memory (MB): peak = 671.801 ; gain = 461.941
Finished Handling Custom Attributes : Time (s): cpu = 00:01:38 ; elapsed = 00:01:50 . Memory (MB): peak = 671.801 ; gain = 461.941
Finished Renaming Generated Nets : Time (s): cpu = 00:01:38 ; elapsed = 00:01:50 . Memory (MB): peak = 671.801 ; gain = 461.941

Report Cell Usage: 
+------+------+------+
|      |Cell  |Count |
+------+------+------+
|1     |LUT1  |     2|
|2     |LUT2  |    18|
|3     |LUT3  |    43|
|4     |LUT4  |    54|
|5     |LUT5  |    68|
|6     |LUT6  |   110|
|7     |MUXF7 |     5|
|8     |FDRE  |   136|
+------+------+------+
Finished Writing Synthesis Report : Time (s): cpu = 00:01:38 ; elapsed = 00:01:50 . Memory (MB): peak = 671.801 ; gain = 461.941
synth_design: Time (s): cpu = 00:01:33 ; elapsed = 00:01:44 . Memory (MB): peak = 671.801 ; gain = 445.102
